%YAML 1.1
%TAG !u! tag:unity3d.com,2011:
--- !u!1045 &1
EditorBuildSettings:
  m_ObjectHideFlags: 0
  serializedVersion: 2
  m_Scenes: []
  m_configObjects:
    Unity.XR.Oculus.Settings: {fileID: 11400000, guid: f9dab862eb7853140b1bb00cd57ff09d, type: 2}
    com.unity.xr.management.loader_settings: {fileID: 11400000, guid: c58228767e40860449352b5e03aa69d3, type: 2}
    com.unity.xr.openxr.settings4: {fileID: 11400000, guid: dd386c17f308a594f9fe4c8e0b06f864, type: 2}
